^C:\USERS\JUSTIN\SOURCE\REPOS\JDR.EXAM2\JDR.EXAM2\MAIN.CPP
C:\USERS\JUSTIN\SOURCE\REPOS\JDR.EXAM2\JDR.EXAM2\DEBUG\VC142.PDB
C:\USERS\JUSTIN\SOURCE\REPOS\JDR.EXAM2\JDR.EXAM2\DEBUG\VC142.IDB
C:\USERS\JUSTIN\SOURCE\REPOS\JDR.EXAM2\JDR.EXAM2\DEBUG\MAIN.OBJ
